42,15,3
29,8,3
30,12,2
25,12,2
24,11,3
24,7,7
25,16,4
26,14,1
34,13,4
32,15,6
25,4,3
31,11,4
38,23,8
22,16,1
26,7,3
28,10,2
40,21,4
30,14,4
37,14,4
26,34,6
30,12,3
32,22,7
20,22,4
26,10,2
27,11,3
24,12,4
37,13,6
25,15,5
27,11,3
35,11,5
27,11,3
24,11,4
21,14,6
21,12,2
12,12,3
22,9,5
30,16,6
28,16,6
19,25,4
16,24,7
20,18,4
15,10,3
16,17,4
18,12,4
22,16,3
20,10,1
20,9,2
16,18,5
18,11,5
18,22,5
20,10,2
17,17,4
20,16,3
25,16,3
15,12,5
15,12,2
22,16,3
12,10,3
19,10,1
15,11,4
18,7,3
17,14,4
11,11,2
20,14,4
13,13,3
16,16,4
20,10,2
16,13,3
15,12,2
11,15,3
25,22,8
26,12,5
22,17,2
20,10,2
28,14,3
30,19,8
28,15,3
25,14,6
25,18,7
30,21,5
34,8,3
42,12,4
38,10,4
29,9,3
35,10,5
34,10,6
36,17,3
30,12,2
30,8,2
42,18,8
27,11,2
25,10,4
33,18,3
34,21,4
22,16,4
19,12,3
27,14,4
37,17,7
28,19,1
38,12,5
29,14,3
34,12,4
40,10,4
27,6,3
45,40,7
11,7,1
20,12,3
22,12,2
18,13,3
20,15,5
11,8,2
12,10,4
25,15,3
25,17,6
34,22,9
24,25,6
25,20,4
18,18,7
19,13,2
22,24,3
24,18,5
20,12,1
7,12,1
25,11,4
18,10,3
15,11,2
15,11,2
45,15,4
80,15,5
38,15,5
43,11,6
28,10,3
45,12,6
30,15,3
31,11,5
25,9,4
31,12,7
37,12,4
28,10,3
26,9,2
25,5,3
25,13,2
35,17,5
25,14,3
28,9,7
31,21,7
25,11,3
21,11,2
25,4,2
27,7,3
25,11,10
35,29,4
28,37,7
19,6,2
29,24,10
23,19,4
22,13,3
19,12,4
16,8,2
24,11,2
19,15,6
35,14,3
39,11,3
40,12,5
32,7,7
33,11,3
17,6,2
19,6,3
27,10,2
35,15,4
40,15,8
47,16,5
25,6,6
24,13,3
24,9,3
27,11,3
22,7,3
20,8,2
23,16,3
46,31,1
32,27,9
14,13,5
30,13,7
33,17,8
25,20,5
30,14,9
50,35,1
25,14,3
23,26,7
31,18,6
26,12,3
25,15,5
45,16,9
24,11,4
35,7,5
24,12,3
27,13,5
19,13,3
15,20,2
22,22,7
26,14,8
30,15,6
22,18,7
27,18,4
40,14,3
36,9,4
37,31,11
34,14,6
27,9,4
39,25,8
37,13,10
32,29,7
18,10,3
32,17,4
32,23,3
33,6,4
28,20,3
9,7,1
23,32,4
23,18,4
38,30,12
31,18,5
26,18,4
15,12,3
11,14,3
16,15,5
10,8,1
11,9,1
30,26,1
22,32,5
25,25,3
33,20,7
23,12,4
18,22,4
32,22,11
15,14,2
27,10,1
15,10,3
19,6,2
12,9,3
15,16,3
17,15,3
12,12,2
16,9,1
10,13,2
10,11,2
14,13,2
19,11,1
14,7,2
25,15,4
30,14,5
22,9,3
32,25,10
23,9,3
26,12,4
32,14,4
28,11,3
30,17,4
26,14,3
30,11,2
17,12,2
20,25,7
24,20,7
20,15,2
20,12,4
18,17,2
25,7,3
25,19,10
14,13,2
15,15,4
18,8,2
18,13,2
13,10,3
13,14,3
9,11,3
12,10,1
37,33,7
50,12,10
32,22,9
92,10,3
29,19,5
